{
	"current_page": 1,
	"data": [
		{
			"id": "abb-571896837475",
			"vid": "abb-571896837475",
			"ProviderType": "Alibaba1688",
			"shop_id": 10,
			"title": "Single simulation rose carnant Knotuki Eternal Life Flower March 8th Festival company promotional activity pushing hand gifts wholesale",
			"link": "https://detail.1688.com/offer/571896837475.html",
			"image": "https://cbu01.alicdn.com/img/ibank/13986351532_1782568519.jpg",
			"price": {
				"discount": {
					"max": null,
					"min": null
				},
				"original": {
					"max": 0.68,
					"min": 0.68
				}
			},
			"ratings": null,
			"seller_name": "义乌享购",
			"seller_id": "abb-fengzhingu",
			"vendor_ratings": 4,
			"ratings_count": null,
			"ratings_average": null,
			"total_sales": "1194756"
		},
		{
			"id": "abb-543167918538",
			"vid": "abb-543167918538",
			"ProviderType": "Alibaba1688",
			"shop_id": 10,
			"title": "Floral brand gift box, with little bears, Birthday gift, wholesale",
			"link": "https://detail.1688.com/offer/543167918538.html",
			"image": "https://cbu01.alicdn.com/img/ibank/2017/460/687/4112786064_1782568519.jpg",
			"price": {
				"discount": {
					"max": null,
					"min": null
				},
				"original": {
					"max": 6.85,
					"min": 6.85
				}
			},
			"ratings": null,
			"seller_name": "义乌享购",
			"seller_id": "abb-fengzhingu",
			"vendor_ratings": 4,
			"ratings_count": null,
			"ratings_average": null,
			"total_sales": "69759"
		},
		{
			"id": "abb-689085882068",
			"vid": "abb-689085882068",
			"ProviderType": "Alibaba1688",
			"shop_id": 10,
			"title": "Special offer on the third floor with base simulation rose head soap, handmade soap, cafeteria gift box decorative creativity",
			"link": "https://detail.1688.com/offer/689085882068.html",
			"image": "https://cbu01.alicdn.com/img/ibank/O1CN01GNZthW2Isgpp8LngJ_!!977159342-0-cib.jpg",
			"price": {
				"discount": {
					"max": null,
					"min": null
				},
				"original": {
					"max": 0.28,
					"min": 0.28
				}
			},
			"ratings": null,
			"seller_name": "义乌享购",
			"seller_id": "abb-fengzhingu",
			"vendor_ratings": 4,
			"ratings_count": null,
			"ratings_average": null,
			"total_sales": "79100"
		},
		{
			"id": "abb-666923752264",
			"vid": "abb-666923752264",
			"ProviderType": "Alibaba1688",
			"shop_id": 10,
			"title": "Aromatherapy, gift box, Birthday gift, wholesale",
			"link": "https://detail.1688.com/offer/666923752264.html",
			"image": "https://cbu01.alicdn.com/img/ibank/O1CN01WZDMJo2IsgmeocEtc_!!977159342-0-cib.jpg",
			"price": {
				"discount": {
					"max": null,
					"min": null
				},
				"original": {
					"max": 11,
					"min": 11
				}
			},
			"ratings": null,
			"seller_name": "义乌享购",
			"seller_id": "abb-fengzhingu",
			"vendor_ratings": 4,
			"ratings_count": null,
			"ratings_average": null,
			"total_sales": "16439"
		},
		{
			"id": "abb-677865210512",
			"vid": "abb-677865210512",
			"ProviderType": "Alibaba1688",
			"shop_id": 10,
			"title": "Full Tiantian Rose Eternal Flower with Lantern Glass Wish Bottle Golden Store 38th Section Get Girlfriend Girlfriends Birthday Gift",
			"link": "https://detail.1688.com/offer/677865210512.html",
			"image": "https://cbu01.alicdn.com/img/ibank/O1CN01slzMMk2IsgoI5jhFX_!!977159342-0-cib.jpg",
			"price": {
				"discount": {
					"max": null,
					"min": null
				},
				"original": {
					"max": 10,
					"min": 10
				}
			},
			"ratings": null,
			"seller_name": "义乌享购",
			"seller_id": "abb-fengzhingu",
			"vendor_ratings": 4,
			"ratings_count": null,
			"ratings_average": null,
			"total_sales": "83476"
		},
		{
			"id": "abb-723053126836",
			"vid": "abb-723053126836",
			"ProviderType": "Alibaba1688",
			"shop_id": 10,
			"title": "38th festival sunflower bouquet eternal flower mini small fresh soap flower exquisite Dly group gift decoration",
			"link": "https://detail.1688.com/offer/723053126836.html",
			"image": "https://cbu01.alicdn.com/img/ibank/O1CN01IFFuCE2IsgtNOHpLS_!!977159342-0-cib.jpg",
			"price": {
				"discount": {
					"max": null,
					"min": null
				},
				"original": {
					"max": 1.6,
					"min": 1.6
				}
			},
			"ratings": null,
			"seller_name": "义乌享购",
			"seller_id": "abb-fengzhingu",
			"vendor_ratings": 4,
			"ratings_count": null,
			"ratings_average": null,
			"total_sales": "33683"
		},
		{
			"id": "abb-689085426990",
			"vid": "abb-689085426990",
			"ProviderType": "Alibaba1688",
			"shop_id": 10,
			"title": "Two -layer soap flower rose simulation big flower head packaging flower beam material DIY soap flower head flower shop holiday dress",
			"link": "https://detail.1688.com/offer/689085426990.html",
			"image": "https://cbu01.alicdn.com/img/ibank/O1CN01BQp0kU2IsgpseFGfU_!!977159342-0-cib.jpg",
			"price": {
				"discount": {
					"max": null,
					"min": null
				},
				"original": {
					"max": 0.23,
					"min": 0.23
				}
			},
			"ratings": null,
			"seller_name": "义乌享购",
			"seller_id": "abb-fengzhingu",
			"vendor_ratings": 4,
			"ratings_count": null,
			"ratings_average": null,
			"total_sales": "26150"
		},
		{
			"id": "abb-616077842338",
			"vid": "abb-616077842338",
			"ProviderType": "Alibaba1688",
			"shop_id": 10,
			"title": "38th Gifts Single Rose Eternal Flower Soap Flower Manufacturer Activity Factory wholesale one generation",
			"link": "https://detail.1688.com/offer/616077842338.html",
			"image": "https://cbu01.alicdn.com/img/ibank/2020/841/297/14549792148_1782568519.jpg",
			"price": {
				"discount": {
					"max": null,
					"min": null
				},
				"original": {
					"max": 2.1,
					"min": 2.1
				}
			},
			"ratings": null,
			"seller_name": "义乌享购",
			"seller_id": "abb-fengzhingu",
			"vendor_ratings": 4,
			"ratings_count": null,
			"ratings_average": null,
			"total_sales": "34726"
		},
		{
			"id": "abb-561682916448",
			"vid": "abb-561682916448",
			"ProviderType": "Alibaba1688",
			"shop_id": 10,
			"title": "Rose Bear Bear Fragrance Bouquet Gift Box 38 Section Section of Girlfriend Girlfriends Birthday Gifts Wholesale",
			"link": "https://detail.1688.com/offer/561682916448.html",
			"image": "https://cbu01.alicdn.com/img/ibank/6808788208_1782568519.jpg",
			"price": {
				"discount": {
					"max": null,
					"min": null
				},
				"original": {
					"max": 18,
					"min": 18
				}
			},
			"ratings": null,
			"seller_name": "义乌享购",
			"seller_id": "abb-fengzhingu",
			"vendor_ratings": 4,
			"ratings_count": null,
			"ratings_average": null,
			"total_sales": "10314"
		},
		{
			"id": "abb-688144840529",
			"vid": "abb-688144840529",
			"ProviderType": "Alibaba1688",
			"shop_id": 10,
			"title": "French Xiaoxiang Fengshand soap rose bundle 38th section 38th section to give men and girls, wife and wife, girlfriend birthday gift",
			"link": "https://detail.1688.com/offer/688144840529.html",
			"image": "https://cbu01.alicdn.com/img/ibank/O1CN011v318J2IsgtrdjeTd_!!977159342-0-cib.jpg",
			"price": {
				"discount": {
					"max": null,
					"min": null
				},
				"original": {
					"max": 11.8,
					"min": 11.8
				}
			},
			"ratings": null,
			"seller_name": "义乌享购",
			"seller_id": "abb-fengzhingu",
			"vendor_ratings": 4,
			"ratings_count": null,
			"ratings_average": null,
			"total_sales": "7055"
		},
		{
			"id": "abb-631471093368",
			"vid": "abb-631471093368",
			"ProviderType": "Alibaba1688",
			"shop_id": 10,
			"title": "New explosive roses soap beam birthday group gift box 38 Valentine's Day company activities to give gifts",
			"link": "https://detail.1688.com/offer/631471093368.html",
			"image": "https://cbu01.alicdn.com/img/ibank/22873436786_1782568519.jpg",
			"price": {
				"discount": {
					"max": null,
					"min": null
				},
				"original": {
					"max": 15,
					"min": 15
				}
			},
			"ratings": null,
			"seller_name": "义乌享购",
			"seller_id": "abb-fengzhingu",
			"vendor_ratings": 4,
			"ratings_count": null,
			"ratings_average": null,
			"total_sales": "14078"
		},
		{
			"id": "abb-693368278409",
			"vid": "abb-693368278409",
			"ProviderType": "Alibaba1688",
			"shop_id": 10,
			"title": "High-end aromatherapy, gift box, light luxury style, Birthday gift",
			"link": "https://detail.1688.com/offer/693368278409.html",
			"image": "https://cbu01.alicdn.com/img/ibank/O1CN01BnLd0s2IsgqLwNNpl_!!977159342-0-cib.jpg",
			"price": {
				"discount": {
					"max": null,
					"min": null
				},
				"original": {
					"max": 13.5,
					"min": 13.5
				}
			},
			"ratings": null,
			"seller_name": "义乌享购",
			"seller_id": "abb-fengzhingu",
			"vendor_ratings": 4,
			"ratings_count": null,
			"ratings_average": null,
			"total_sales": "613"
		},
		{
			"id": "abb-748156004646",
			"vid": "abb-748156004646",
			"ProviderType": "Alibaba1688",
			"shop_id": 10,
			"title": "Glass Cover Goddess Festival Gift Soap Bouquet Rose New Year's Eve 38 Gift Lights Eternal Flower Gift Swing",
			"link": "https://detail.1688.com/offer/748156004646.html",
			"image": "https://cbu01.alicdn.com/img/ibank/O1CN01FUw1Fw2IsgwaidOAK_!!977159342-0-cib.jpg",
			"price": {
				"discount": {
					"max": null,
					"min": null
				},
				"original": {
					"max": 15,
					"min": 15
				}
			},
			"ratings": null,
			"seller_name": "义乌享购",
			"seller_id": "abb-fengzhingu",
			"vendor_ratings": 4,
			"ratings_count": null,
			"ratings_average": null,
			"total_sales": "873"
		},
		{
			"id": "abb-711078224199",
			"vid": "abb-711078224199",
			"ProviderType": "Alibaba1688",
			"shop_id": 10,
			"title": "38th rose bouquet eternal flower mini small fresh soap flower exquisite Dly group gift decoration",
			"link": "https://detail.1688.com/offer/711078224199.html",
			"image": "https://cbu01.alicdn.com/img/ibank/O1CN01h6eFED2IsgtNOJVIR_!!977159342-0-cib.jpg",
			"price": {
				"discount": {
					"max": null,
					"min": null
				},
				"original": {
					"max": 1.6,
					"min": 1.6
				}
			},
			"ratings": null,
			"seller_name": "义乌享购",
			"seller_id": "abb-fengzhingu",
			"vendor_ratings": 4,
			"ratings_count": null,
			"ratings_average": null,
			"total_sales": "305"
		},
		{
			"id": "abb-733372958145",
			"vid": "abb-733372958145",
			"ProviderType": "Alibaba1688",
			"shop_id": 10,
			"title": "Simulation flower PU Huayin Single Single Branch Transparent Bag Teacher Sending Teacher Creative Gifts Creative Gift Stalls wholesale",
			"link": "https://detail.1688.com/offer/733372958145.html",
			"image": "https://cbu01.alicdn.com/img/ibank/O1CN01mg69cY2Isgue9H5TE_!!977159342-0-cib.jpg",
			"price": {
				"discount": {
					"max": null,
					"min": null
				},
				"original": {
					"max": 3,
					"min": 3
				}
			},
			"ratings": null,
			"seller_name": "义乌享购",
			"seller_id": "abb-fengzhingu",
			"vendor_ratings": 4,
			"ratings_count": null,
			"ratings_average": null,
			"total_sales": "491"
		},
		{
			"id": "abb-729188844526",
			"vid": "abb-729188844526",
			"ProviderType": "Alibaba1688",
			"shop_id": 10,
			"title": "Three Eight Section Manchi Dry Flower Valentine's Day mini flower bouquet with gift boxes with gift box eternal flower factory wholesale",
			"link": "https://detail.1688.com/offer/729188844526.html",
			"image": "https://cbu01.alicdn.com/img/ibank/O1CN01mmzL622IsguIvueAm_!!977159342-0-cib.jpg",
			"price": {
				"discount": {
					"max": null,
					"min": null
				},
				"original": {
					"max": 1.6,
					"min": 1.6
				}
			},
			"ratings": null,
			"seller_name": "义乌享购",
			"seller_id": "abb-fengzhingu",
			"vendor_ratings": 4,
			"ratings_count": null,
			"ratings_average": null,
			"total_sales": "51"
		},
		{
			"id": "abb-722964985672",
			"vid": "abb-722964985672",
			"ProviderType": "Alibaba1688",
			"shop_id": 10,
			"title": "38th section Introduction to Kang Naixin Bouquet Eternal Flower Mini Fresh Sauce Flower Exquisite Dly Smooth Gift Decoration",
			"link": "https://detail.1688.com/offer/722964985672.html",
			"image": "https://cbu01.alicdn.com/img/ibank/O1CN01DLxeLD2Isgtw6LLXn_!!977159342-0-cib.jpg",
			"price": {
				"discount": {
					"max": null,
					"min": null
				},
				"original": {
					"max": 1.45,
					"min": 1.45
				}
			},
			"ratings": null,
			"seller_name": "义乌享购",
			"seller_id": "abb-fengzhingu",
			"vendor_ratings": 4,
			"ratings_count": null,
			"ratings_average": null,
			"total_sales": "10"
		},
		{
			"id": "abb-744223138370",
			"vid": "abb-744223138370",
			"ProviderType": "Alibaba1688",
			"shop_id": 10,
			"title": "Strawberry bear rose eternal flower bouquet birthday gift gives girls friends girlfriends 38 gift factories wholesale",
			"link": "https://detail.1688.com/offer/744223138370.html",
			"image": "https://cbu01.alicdn.com/img/ibank/O1CN01PN7hvf2Isgw6sttML_!!977159342-0-cib.jpg",
			"price": {
				"discount": {
					"max": null,
					"min": null
				},
				"original": {
					"max": 17.8,
					"min": 17.8
				}
			},
			"ratings": null,
			"seller_name": "义乌享购",
			"seller_id": "abb-fengzhingu",
			"vendor_ratings": 4,
			"ratings_count": null,
			"ratings_average": null,
			"total_sales": "7"
		},
		{
			"id": "abb-616083795911",
			"vid": "abb-616083795911",
			"ProviderType": "Alibaba1688",
			"shop_id": 10,
			"title": "Mini dried flowers full of star flower bouquet ins Eternal life flower three or eight gift boxes with event gift soap bouquet",
			"link": "https://detail.1688.com/offer/616083795911.html",
			"image": "https://cbu01.alicdn.com/img/ibank/14376862141_1782568519.jpg",
			"price": {
				"discount": {
					"max": null,
					"min": null
				},
				"original": {
					"max": 1.6,
					"min": 1.6
				}
			},
			"ratings": null,
			"seller_name": "义乌享购",
			"seller_id": "abb-fengzhingu",
			"vendor_ratings": 4,
			"ratings_count": null,
			"ratings_average": null,
			"total_sales": "609030"
		},
		{
			"id": "abb-642630419667",
			"vid": "abb-642630419667",
			"ProviderType": "Alibaba1688",
			"shop_id": 10,
			"title": "Handicular Rose Sunflower Soap Flower Blossom 38th Festival Activities Small Gift Smoil Valentine's Day batch",
			"link": "https://detail.1688.com/offer/642630419667.html",
			"image": "https://cbu01.alicdn.com/img/ibank/O1CN01k9vSD62IsgiZIM6bY_!!977159342-0-cib.jpg",
			"price": {
				"discount": {
					"max": null,
					"min": null
				},
				"original": {
					"max": 2.8,
					"min": 2.8
				}
			},
			"ratings": null,
			"seller_name": "义乌享购",
			"seller_id": "abb-fengzhingu",
			"vendor_ratings": 4,
			"ratings_count": null,
			"ratings_average": null,
			"total_sales": "31616"
		},
		{
			"id": "abb-732939732432",
			"vid": "abb-732939732432",
			"ProviderType": "Alibaba1688",
			"shop_id": 10,
			"title": "Props flower-shaped, Birthday gift, wholesale, sunflower, roses",
			"link": "https://detail.1688.com/offer/732939732432.html",
			"image": "https://cbu01.alicdn.com/img/ibank/O1CN01kOf2JM2IsgvtG1ciT_!!977159342-0-cib.jpg",
			"price": {
				"discount": {
					"max": null,
					"min": null
				},
				"original": {
					"max": 2.2,
					"min": 2.2
				}
			},
			"ratings": null,
			"seller_name": "义乌享购",
			"seller_id": "abb-fengzhingu",
			"vendor_ratings": 4,
			"ratings_count": null,
			"ratings_average": null,
			"total_sales": "1209"
		},
		{
			"id": "abb-750557830876",
			"vid": "abb-750557830876",
			"ProviderType": "Alibaba1688",
			"shop_id": 10,
			"title": "Factory wholesale mini flower bouquet handmade mini dried flower lover gift DIY group gift decoration gift box with flowers",
			"link": "https://detail.1688.com/offer/750557830876.html",
			"image": "https://cbu01.alicdn.com/img/ibank/O1CN012aV5oa2IsgwnscZR7_!!977159342-0-cib.jpg",
			"price": {
				"discount": {
					"max": null,
					"min": null
				},
				"original": {
					"max": 8.8,
					"min": 8.8
				}
			},
			"ratings": null,
			"seller_name": "义乌享购",
			"seller_id": "abb-fengzhingu",
			"vendor_ratings": 4,
			"ratings_count": null,
			"ratings_average": null,
			"total_sales": "512"
		},
		{
			"id": "abb-684022017069",
			"vid": "abb-684022017069",
			"ProviderType": "Alibaba1688",
			"shop_id": 10,
			"title": "Brand aromatherapy, perfume, fresh jewelry, long-term effect, wholesale",
			"link": "https://detail.1688.com/offer/684022017069.html",
			"image": "https://cbu01.alicdn.com/img/ibank/O1CN01FTLCbo2IsguaoDkdj_!!977159342-0-cib.jpg",
			"price": {
				"discount": {
					"max": null,
					"min": null
				},
				"original": {
					"max": 6.5,
					"min": 6.5
				}
			},
			"ratings": null,
			"seller_name": "义乌享购",
			"seller_id": "abb-fengzhingu",
			"vendor_ratings": 4,
			"ratings_count": null,
			"ratings_average": null,
			"total_sales": "10183"
		},
		{
			"id": "abb-733582878977",
			"vid": "abb-733582878977",
			"ProviderType": "Alibaba1688",
			"shop_id": 10,
			"title": "Christmas Creative Mini Flower Bouquet Soda Flower Products Smoral Ceremony Qixi Valentine's Day Gift Wholesale",
			"link": "https://detail.1688.com/offer/733582878977.html",
			"image": "https://cbu01.alicdn.com/img/ibank/O1CN01ZGVq2F2IsguflLmOK_!!977159342-0-cib.jpg",
			"price": {
				"discount": {
					"max": null,
					"min": null
				},
				"original": {
					"max": 1.3,
					"min": 1.3
				}
			},
			"ratings": null,
			"seller_name": "义乌享购",
			"seller_id": "abb-fengzhingu",
			"vendor_ratings": 4,
			"ratings_count": null,
			"ratings_average": null,
			"total_sales": "41"
		}
	],
	"first_page_url": "/?page=1",
	"from": 1,
	"last_page": 3,
	"last_page_url": "/?page=3",
	"links": [
		{
			"url": null,
			"label": "&laquo; Previous",
			"active": false
		},
		{
			"url": "/?page=1",
			"label": "1",
			"active": true
		},
		{
			"url": "/?page=2",
			"label": "2",
			"active": false
		},
		{
			"url": "/?page=3",
			"label": "3",
			"active": false
		},
		{
			"url": "/?page=2",
			"label": "Next &raquo;",
			"active": false
		}
	],
	"next_page_url": "/?page=2",
	"path": "/",
	"per_page": 24,
	"prev_page_url": null,
	"to": 24,
	"total": 71
}